-------------------------------------------------------------------------------
Test set: superkey.keychain.KeyChainTest
-------------------------------------------------------------------------------
Tests run: 9, Failures: 0, Errors: 0, Skipped: 0, Time elapsed: 0.314 sec
